,NUTS3,value_keur,n
0,ITC11,5656.077,30
1,ITC12,135.0,2
2,ITC15,9.0,1
3,ITC16,3.75,1
4,ITC32,10.0,1
5,ITC33,5847.892,21
6,ITC41,9.1,2
7,ITC42,133.4,1
8,ITC47,162.0,2
9,ITC48,788.669,8
10,ITC4A,27.0,1
11,ITC4C,9643.081,48
12,ITC4D,13.8,1
13,ITF12,1272.26,3
14,ITF13,138.0,1
15,ITF14,897.069,5
16,ITF21,325.6,2
17,ITF22,69.0,1
18,ITF31,316.6,4
19,ITF33,2887.975,19
20,ITF35,913.9,8
21,ITF44,9.2,1
22,ITF45,753.92,11
23,ITF46,26.0,2
24,ITF47,1228.169,15
25,ITF51,49.5,2
26,ITF52,166.5,1
27,ITF61,124.2,1
28,ITF65,144.0,1
29,ITG12,880.6,6
30,ITG13,136.0,2
31,ITG16,189.0,1
32,ITG17,408.7,3
33,ITG2D ,579.0,4
34,ITG2F,561.768,4
35,ITH10,1236.632,9
36,ITH20,1964.0,12
37,ITH31,1444.189,3
38,ITH32,29.081,1
39,ITH35,4675.697,17
40,ITH36,7192.038,21
41,ITH37,27.0,1
42,ITH42,656.01,4
43,ITH44,1636.744,13
44,ITH52,1639.937,8
45,ITH54,928.3,11
46,ITH55,2909.214,22
47,ITH56,501.869,4
48,ITI11,216.0,1
49,ITI12,171.35,8
50,ITI14,353.969,8
51,ITI16,138.0,1
52,ITI17,2516.219,24
53,ITI18,73.2,3
54,ITI19,631.3,10
55,ITI21,1996.836,16
56,ITI32,268.538,3
57,ITI33,1051.0,8
58,ITI41,257.6,2
59,ITI43,29788.507,141
60,ITI45,173.5,2
